{
  "project_info": {
    "project_number": "1027875097946",
    "firebase_url": "https://projeto1-ab706.firebaseio.com",
    "project_id": "projeto1-ab706",
    "storage_bucket": "projeto1-ab706.appspot.com"
  },
  "client": [
    {
      "client_info": {
        "mobilesdk_app_id": "1:1027875097946:android:47970022d4b4389af43763",
        "android_client_info": {
          "package_name": "br.ifsc.edu.projeto1"
        }
      },
      "oauth_client": [
        {
          "client_id": "1027875097946-npd3la39aleuhqok3sfij3q98g3r1i7i.apps.googleusercontent.com",
          "client_type": 1,
          "android_info": {
            "package_name": "br.ifsc.edu.projeto1",
            "certificate_hash": "bec76724069a30dd491ec36d7ee0be808b79c941"
          }
        },
        {
          "client_id": "1027875097946-amf97fvvbql1a893ki6inib4j1n0vmu8.apps.googleusercontent.com",
          "client_type": 3
        }
      ],
      "api_key": [
        {
          "current_key": "AIzaSyDJSLh8ZDdKbCOJku3cTYkvV5dkjFFhBEY"
        }
      ],
      "services": {
        "appinvite_service": {
          "other_platform_oauth_client": [
            {
              "client_id": "1027875097946-amf97fvvbql1a893ki6inib4j1n0vmu8.apps.googleusercontent.com",
              "client_type": 3
            }
          ]
        }
      }
    }
  ],
  "configuration_version": "1"
}